Assignment 8
…
## Warning in summary.lm(lm(y ~ .x, data = frame)): essentially perfect fit:
## summary may be unreliable

## Warning in summary.lm(lm(y ~ .x, data = frame)): essentially perfect fit:
## summary may be unreliable

## Warning in summary.lm(lm(y ~ .x, data = frame)): essentially perfect fit:
## summary may be unreliable

## Warning in summary.lm(lm(y ~ .x, data = frame)): essentially perfect fit:
## summary may be unreliable

output

## # A tibble: 49 x 3
##    x           y            r.squared
##    <chr>       <chr>            <dbl>
##  1 PassengerId PassengerId 1         
##  2 PassengerId Survived    0.0000251 
##  3 PassengerId Pclass      0.00124   
##  4 PassengerId Age         0.00136   
##  5 PassengerId SibSp       0.00331   
##  6 PassengerId Parch       0.00000273
##  7 PassengerId Fare        0.000160  
##  8 Survived    PassengerId 0.0000251 
##  9 Survived    Survived    1         
## 10 Survived    Pclass      0.115     
## # ... with 39 more rows
